{
  "reviews": [
    {
      "art": "101",
      "review": [
        {
          "name": "Ariana Grande",
          "avatar": "images/avatar-01.jpg",
          "text": "Мне всё подошло. Спасибо большое",
          "date": "12.4.2018"
        },
        {
          "name": "Samanta Black",
          "avatar": "images/avatar-02.png",
          "text": "Выглядит красиво!",
          "date": "14.4.2018"
        },
        {
          "name": "Andy Green",
          "avatar": "images/avatar-03.png",
          "text": "Очень нравится этот магазин",
          "date": "16.4.2018"
        }
      ]
    },
    {
      "art": "102",
      "review": [
        {
          "name": "Ariana Grande",
          "avatar": "images/avatar-01.jpg",
          "text": "Мне всё подошло. Спасибо большое",
          "date": "11.4.2018"
        },
        {
          "name": "Samanta Black",
          "avatar": "images/avatar-02.png",
          "text": "Выглядит красиво!",
          "date": "22.4.2018"
        },
        {
          "name": "Andy Green",
          "avatar": "images/avatar-03.png",
          "text": "Очень нравится этот магазин",
          "date": "29.4.2018"
        }
      ]
    },
    {
      "art": "103",
      "review": [
        {
          "name": "Ariana Grande",
          "avatar": "images/avatar-01.jpg",
          "text": "Мне всё подошло. Спасибо большое",
          "date": "12.4.2018"
        },
        {
          "name": "Samanta Black",
          "avatar": "images/avatar-02.png",
          "text": "Выглядит красиво!",
          "date": "15.4.2018"
        },
        {
          "name": "Andy Green",
          "avatar": "images/avatar-03.png",
          "text": "Очень нравится этот магазин",
          "date": "30.4.2018"
        }
      ]
    },
    {
      "art": "104",
      "review": [
        {
          "name": "Ariana Grande",
          "avatar": "images/avatar-01.jpg",
          "text": "Мне всё подошло. Спасибо большое",
          "date": "11.4.2018"
        },
        {
          "name": "Samanta Black",
          "avatar": "images/avatar-02.png",
          "text": "Выглядит красиво!",
          "date": "22.4.2018"
        },
        {
          "name": "Andy Green",
          "avatar": "images/avatar-03.png",
          "text": "Очень нравится этот магазин",
          "date": "29.4.2018"
        }
      ]
    },
    {
      "art": "105",
      "review": [
        {
          "name": "Ariana Grande",
          "avatar": "images/avatar-01.jpg",
          "text": "Мне всё подошло. Спасибо большое",
          "date": "11.4.2018"
        },
        {
          "name": "Samanta Black",
          "avatar": "images/avatar-02.png",
          "text": "Выглядит красиво!",
          "date": "22.4.2018"
        },
        {
          "name": "Andy Green",
          "avatar": "images/avatar-03.png",
          "text": "Очень нравится этот магазин",
          "date": "29.4.2018"
        }
      ]
    },
    {
      "art": "201",
      "review": [
        {
          "name": "Ariana Grande",
          "avatar": "images/avatar-01.jpg",
          "text": "Мне всё подошло. Спасибо большое",
          "date": "11.4.2018"
        },
        {
          "name": "Samanta Black",
          "avatar": "images/avatar-02.png",
          "text": "Выглядит красиво!",
          "date": "22.4.2018"
        },
        {
          "name": "Andy Green",
          "avatar": "images/avatar-03.png",
          "text": "Очень нравится этот магазин",
          "date": "29.4.2018"
        }
      ]
    },
    {
      "art": "202",
      "review": [
        {
          "name": "Ariana Grande",
          "avatar": "images/avatar-01.jpg",
          "text": "Мне всё подошло. Спасибо большое",
          "date": "11.4.2018"
        },
        {
          "name": "Samanta Black",
          "avatar": "images/avatar-02.png",
          "text": "Выглядит красиво!",
          "date": "22.4.2018"
        },
        {
          "name": "Andy Green",
          "avatar": "images/avatar-03.png",
          "text": "Очень нравится этот магазин",
          "date": "29.4.2018"
        }
      ]
    },
    {
      "art": "203",
      "review": [
        {
          "name": "Ariana Grande",
          "avatar": "images/avatar-01.jpg",
          "text": "Мне всё подошло. Спасибо большое",
          "date": "11.4.2018"
        },
        {
          "name": "Samanta Black",
          "avatar": "images/avatar-02.png",
          "text": "Выглядит красиво!",
          "date": "22.4.2018"
        },
        {
          "name": "Andy Green",
          "avatar": "images/avatar-03.png",
          "text": "Очень нравится этот магазин",
          "date": "29.4.2018"
        }
      ]
    },
    {
      "art": "204",
      "review": [
        {
          "name": "Ariana Grande",
          "avatar": "images/avatar-01.jpg",
          "text": "Мне всё подошло. Спасибо большое",
          "date": "11.4.2018"
        },
        {
          "name": "Samanta Black",
          "avatar": "images/avatar-02.png",
          "text": "Выглядит красиво!",
          "date": "22.4.2018"
        },
        {
          "name": "Andy Green",
          "avatar": "images/avatar-03.png",
          "text": "Очень нравится этот магазин",
          "date": "29.4.2018"
        }
      ]
    },
    {
      "art": "205",
      "review": [
        {
          "name": "Ariana Grande",
          "avatar": "images/avatar-01.jpg",
          "text": "Мне всё подошло. Спасибо большое",
          "date": "11.4.2018"
        },
        {
          "name": "Samanta Black",
          "avatar": "images/avatar-02.png",
          "text": "Выглядит красиво!",
          "date": "22.4.2018"
        },
        {
          "name": "Andy Green",
          "avatar": "images/avatar-03.png",
          "text": "Очень нравится этот магазин",
          "date": "29.4.2018"
        }
      ]
    },
    {
      "art": "301",
      "review": [
        {
          "name": "Ariana Grande",
          "avatar": "images/avatar-01.jpg",
          "text": "Мне всё подошло. Спасибо большое",
          "date": "11.4.2018"
        },
        {
          "name": "Samanta Black",
          "avatar": "images/avatar-02.png",
          "text": "Выглядит красиво!",
          "date": "22.4.2018"
        },
        {
          "name": "Andy Green",
          "avatar": "images/avatar-03.png",
          "text": "Очень нравится этот магазин",
          "date": "29.4.2018"
        }
      ]
    },
    {
      "art": "302",
      "review": [
        {
          "name": "Ariana Grande",
          "avatar": "images/avatar-01.jpg",
          "text": "Мне всё подошло. Спасибо большое",
          "date": "11.4.2018"
        },
        {
          "name": "Samanta Black",
          "avatar": "images/avatar-02.png",
          "text": "Выглядит красиво!",
          "date": "22.4.2018"
        },
        {
          "name": "Andy Green",
          "avatar": "images/avatar-03.png",
          "text": "Очень нравится этот магазин",
          "date": "29.4.2018"
        }
      ]
    },
    {
      "art": "303",
      "review": [
        {
          "name": "Ariana Grande",
          "avatar": "images/avatar-01.jpg",
          "text": "Мне всё подошло. Спасибо большое",
          "date": "11.4.2018"
        },
        {
          "name": "Samanta Black",
          "avatar": "images/avatar-02.png",
          "text": "Выглядит красиво!",
          "date": "22.4.2018"
        },
        {
          "name": "Andy Green",
          "avatar": "images/avatar-03.png",
          "text": "Очень нравится этот магазин",
          "date": "29.4.2018"
        }
      ]
    },
    {
      "art": "304",
      "review": [
        {
          "name": "Ariana Grande",
          "avatar": "images/avatar-01.jpg",
          "text": "Мне всё подошло. Спасибо большое",
          "date": "11.4.2018"
        },
        {
          "name": "Samanta Black",
          "avatar": "images/avatar-02.png",
          "text": "Выглядит красиво!",
          "date": "22.4.2018"
        },
        {
          "name": "Andy Green",
          "avatar": "images/avatar-03.png",
          "text": "Очень нравится этот магазин",
          "date": "29.4.2018"
        }
      ]
    },
    {
      "art": "305",
      "review": [
        {
          "name": "Ariana Grande",
          "avatar": "images/avatar-01.jpg",
          "text": "Мне всё подошло. Спасибо большое",
          "date": "11.4.2018"
        },
        {
          "name": "Samanta Black",
          "avatar": "images/avatar-02.png",
          "text": "Выглядит красиво!",
          "date": "22.4.2018"
        },
        {
          "name": "Andy Green",
          "avatar": "images/avatar-03.png",
          "text": "Очень нравится этот магазин",
          "date": "29.4.2018"
        }
      ]
    },
    {
      "art": "401",
      "review": [
        {
          "name": "Ariana Grande",
          "avatar": "images/avatar-01.jpg",
          "text": "Мне всё подошло. Спасибо большое",
          "date": "11.4.2018"
        },
        {
          "name": "Samanta Black",
          "avatar": "images/avatar-02.png",
          "text": "Выглядит красиво!",
          "date": "22.4.2018"
        },
        {
          "name": "Andy Green",
          "avatar": "images/avatar-03.png",
          "text": "Очень нравится этот магазин",
          "date": "29.4.2018"
        }
      ]
    },
    {
      "art": "402",
      "review": [
        {
          "name": "Ariana Grande",
          "avatar": "images/avatar-01.jpg",
          "text": "Мне всё подошло. Спасибо большое",
          "date": "11.4.2018"
        },
        {
          "name": "Samanta Black",
          "avatar": "images/avatar-02.png",
          "text": "Выглядит красиво!",
          "date": "22.4.2018"
        },
        {
          "name": "Andy Green",
          "avatar": "images/avatar-03.png",
          "text": "Очень нравится этот магазин",
          "date": "29.4.2018"
        }
      ]
    },
    {
      "art": "403",
      "review": [
        {
          "name": "Ariana Grande",
          "avatar": "images/avatar-01.jpg",
          "text": "Мне всё подошло. Спасибо большое",
          "date": "11.4.2018"
        },
        {
          "name": "Samanta Black",
          "avatar": "images/avatar-02.png",
          "text": "Выглядит красиво!",
          "date": "22.4.2018"
        },
        {
          "name": "Andy Green",
          "avatar": "images/avatar-03.png",
          "text": "Очень нравится этот магазин",
          "date": "29.4.2018"
        }
      ]
    },
    {
      "art": "404",
      "review": [
        {
          "name": "Ariana Grande",
          "avatar": "images/avatar-01.jpg",
          "text": "Мне всё подошло. Спасибо большое",
          "date": "11.4.2018"
        },
        {
          "name": "Samanta Black",
          "avatar": "images/avatar-02.png",
          "text": "Выглядит красиво!",
          "date": "22.4.2018"
        },
        {
          "name": "Andy Green",
          "avatar": "images/avatar-03.png",
          "text": "Очень нравится этот магазин",
          "date": "29.4.2018"
        }
      ]
    },
    {
      "art": "405",
      "review": [
        {
          "name": "Ariana Grande",
          "avatar": "images/avatar-01.jpg",
          "text": "Мне всё подошло. Спасибо большое",
          "date": "11.4.2018"
        },
        {
          "name": "Samanta Black",
          "avatar": "images/avatar-02.png",
          "text": "Выглядит красиво!",
          "date": "22.4.2018"
        },
        {
          "name": "Andy Green",
          "avatar": "images/avatar-03.png",
          "text": "Очень нравится этот магазин",
          "date": "29.4.2018"
        }
      ]
    }
  ]
}