{
  "country": "USA",
  "state": "Qwe",
  "zip": "12345",
  "totalPrice": "399.99",
  "shoppingList": [
    {
      "name": "Apple Watch Series 3 Gold Aluminum Case with Pink Sand Sport Loop",
      "price": "$399.99",
      "quantity": "1",
      "productImagePath": "images/product-06.jpg"
    }
  ]
}
