{
  "users":[
    {
      "id": "0",
      "email": "email111@gmail.com",
      "password": "12345678",
      "name": "Alex"
    },
    {
      "id": "1",
      "email": "email222@gmail.com",
      "password": "asdfghj",
      "name": "David"
    },
    {
      "id": "2",
      "email": "email333@gmail.com",
      "password": "kkkkk",
      "name": "Anna"
    }
  ]
}